[{
    "devtasks": "Take 5 sips if you have a beer as a drink, if not add 5 sips to your total sips"
}, {
    "devtasks": "Take 2 sips, also the player with most sips takes 8 sips"
}, {
    "devtasks": "Take 4 sips and add 4 sips to all the other players total sips"
},

{
    "devtasks": "You get to choose how many sips between 1-10 everyone takes"
},
{
    "devtasks": "Take a sip for each player participating in the game"
},

{
    "devtasks": "Add 6 sips to your total sips everyone else takes 3 sips"
},

{
    "devtasks": "You and the oldest player take 3 sips, if you are the oldest player take 6 sips"
},

{
    "devtasks": "Pick a truth or dare and take 4 sips"
},

{
    "devtasks": "Take 2 sips and read out loud your newest whatsapp message, if you refuse take 10 extra sips"
},

{
    "devtasks": "Take 4 sips and choose how many sips between 1-10 gets added to everyones sips"
},

{
    "devtasks": "Choose a player, everytime they take sips you take sips"
},

{
    "devtasks": "Take 2 sips, if someone is wearing red take 6 sips"
},

{
    "devtasks": "Take 6 sips, also add 6 sips to player with least sips"
},

{
    "devtasks": "Take 4 sips, if you are drinking wine add 8 sips to your total sips"
},

{
    "devtasks": "Create a new task and take 6 sips"
},

{
    "devtasks": "Take 5 sips and add 5 sips for everyone with less than 20 sips"
},

{
    "devtasks": "Take 5 sip, if you have over 25 total sips, if you have less add 6 sips to your total sips"
},

{
    "devtasks": "Take 2 sips, if you got picked 2 times in a row or this task was given last turn take 8 extra sips"
},

{
    "devtasks": "Take a sip for every male participant, if there is not any add 2 sips to your total sips"
},

{
    "devtasks": "Take a sip for every female participant, if there is not any add 2 sips to your total sips"
},

{
    "devtasks": "Stand up and take 7 sips"
}
]